<svg xmlns="http://www.w3.org/2000/svg" width="20" height="16" viewBox="0 0 20 16">
    <path fill="#FFF" fill-rule="nonzero" d="M19.647.853a1.137 1.137 0 0 0-1.647 0L5.882 12.97 2 9.088a1.137 1.137 0 0 0-1.647 0c-.47.47-.47 1.177 0 1.647l4.706 4.706c.235.235.588.353.823.353.236 0 .589-.118.824-.353L19.647 2.5c.47-.47.47-1.176 0-1.647z"/>
</svg>
