module wcws

go 1.12

require (
	cloud.google.com/go/firestore v1.0.0 // indirect
	cloud.google.com/go/storage v1.1.0 // indirect
	firebase.google.com/go v3.9.0+incompatible
	github.com/PuerkitoBio/goquery v1.5.0
	github.com/joho/godotenv v1.3.0
	github.com/labstack/echo/v4 v4.1.11
	github.com/stretchr/testify v1.4.0
	google.golang.org/api v0.11.0 // indirect
)
